[
  {
    "relation" : [
      "delegate_permission/common.handle_all_urls",
      "delegate_permission/common.get_login_creds"
    ],
    "target" : {
      "namespace" : "android_app",
      "package_name" : "com.aesuriagasalazar.passkeysample",
      "sha256_cert_fingerprints" : [
        "74:26:98:45:56:EF:26:3E:B0:C6:E6:B0:6F:70:BC:15:72:8A:17:2B:00:0E:F5:31:41:C6:5D:99:F3:1A:6A:FE"
      ]
    }
  }
]
